Angewandte Datenverarbeitung und Visualisierung - 10 Base R
…
 [1] "young" "young" "young" "young" "young" "young" "young" "young" "young"
[10] "young"

Dies sollte keine Folgen haben, aber es ist wichtig, die innere Struktur Ihrer Daten zu verstehen, damit Sie entsprechend damit arbeiten können.

10.3.2 Beobachtungen extrahieren/filtern

Wir haben bereits die Funktion filter() von dplyr gesehen, die Zeilen extrahiert, die logischen Bedingungen entsprechen.

tidyverse

df_tidy |> 
  filter(RTlexdec > 600 & RTnaming < 480)

# A tibble: 856 × 7
   AgeSubject Word  LengthInLetters WrittenFrequency WordCategory RTlexdec
   <chr>      <chr>           <dbl>            <dbl> <chr>           <dbl>
 1 young      doe                 3             3.91 N                695.
 2 young      pork                4             5.02 N                617.
 3 young      prop                4             4.77 N                687.
 4 young      arc                 3             4.89 N                741.
 5 young      tile                4             4.08 N                647.
 6 young      slope               5             5.80 N                633.
 7 young      pith                4             2.48 N                696.
 8 young      blitz               5             4.19 N                672.
 9 young      port                4             6.08 N                683.
10 young      plan                4             7.46 N                636.
# ℹ 846 more rows
# ℹ 1 more variable: RTnaming <dbl>
…
10.3.4 Neue Variablen erstellen

Wir haben gelernt, wie man mit der Funktion mutate(), die ebenfalls aus dplyr stammt, neue Variablen erstellt oder bestehende Variablen ändert.

tidyverse

df_tidy |> 
  mutate(rt_lexdec_s = RTlexdec/1000)

# A tibble: 4,568 × 8
   AgeSubject Word   LengthInLetters WrittenFrequency WordCategory RTlexdec
   <chr>      <chr>            <dbl>            <dbl> <chr>           <dbl>
 1 young      doe                  3             3.91 N                695.
 2 young      whore                5             4.52 N                600.
 3 young      stress               6             6.51 N                547.
 4 young      pork                 4             5.02 N                617.
 5 young      plug                 4             4.89 N                633.
 6 young      prop                 4             4.77 N                687.
 7 young      dawn                 4             6.38 N                584.
 8 young      dog                  3             7.16 N                527.
 9 young      arc                  3             4.89 N                741.
10 young      skirt                5             5.93 N                536.
# ℹ 4,558 more rows
# ℹ 2 more variables: RTnaming <dbl>, rt_lexdec_s <dbl>
…
